…
\##For snowfall, what are the most commonly observed values? Why?

``` r
snwfall_stats <- ny_noaa_tidy %>%
  group_by(snow) %>%
  summarise(
    count = n()
  ) %>%
  arrange(desc(count))
snwfall_stats
```

    ## # A tibble: 282 × 2
    ##     snow   count
    ##    <int>   <int>
    ##  1     0 2008508
    ##  2    NA  381221
    ##  3    25   31022
    ##  4    13   23095
    ##  5    51   18274
    ##  6    76   10173
    ##  7     8    9962
    ##  8     5    9748
    ##  9    38    9197
    ## 10     3    8790
    ## # … with 272 more rows
…
